RAM/ram.log
# vsim -vopt work.top -voptargs="+acc=npr" -assertdebug -l ram.log -coverage -c -do "coverage save -onexit -assert -directive -cvg -codeAll ram.ucdb; run -all; exit" 
# Start time: 19:55:52 on Jul 05,2026
# ** Note: (vsim-3813) Design is being optimized due to module recompilation...
# //  Questa Sim
# //  Version 10.6c linux Jul 25 2017
# //
# //  Copyright 1991-2017 Mentor Graphics Corporation
# //  All Rights Reserved.
# //
# //  QuestaSim and its associated documentation contain trade
# //  secrets and commercial or financial information that are the property of
# //  Mentor Graphics Corporation and are privileged, confidential,
# //  and exempt from disclosure under the Freedom of Information Act,
# //  5 U.S.C. Section 552. Furthermore, this information
# //  is prohibited from disclosure under the Trade Secrets Act,
# //  18 U.S.C. Section 1905.
# //
# Loading sv_std.std
# Loading work.ram_verify_sv_unit(fast)
# Loading work.top(fast)
# Loading work.ram_if(fast)
# Loading work.RAM_sv_unit(fast)
# Loading work.RAM(fast)
# Loading work.ram_if(fast)
# ** Warning: (vsim-8441) ram_verify.sv(104): Clocking block output vif.drv_cb.address is not legal in this
# or another expression.
#    Time: 0 ps  Iteration: 0  Region: /ram_verify_sv_unit File: defines.svh
# ** Warning: (vsim-8441) ram_verify.sv(103): Clocking block output vif.drv_cb.data_in is not legal in this
# or another expression.
#    Time: 0 ps  Iteration: 0  Region: /ram_verify_sv_unit File: defines.svh
# ** Warning: (vsim-8441) ram_verify.sv(102): Clocking block output vif.drv_cb.read_enb is not legal in this
# or another expression.
#    Time: 0 ps  Iteration: 0  Region: /ram_verify_sv_unit File: defines.svh
# ** Warning: (vsim-8441) ram_verify.sv(101): Clocking block output vif.drv_cb.write_enb is not legal in this
# or another expression.
#    Time: 0 ps  Iteration: 0  Region: /ram_verify_sv_unit File: defines.svh
# coverage save -onexit -assert -directive -cvg -codeAll ram.ucdb
#  run -all
# Generator Randomized transaction data_in=39,write_enb=0,read_enb=0,address=a,T=0
# Generator Randomized transaction data_in=28,write_enb=0,read_enb=1,address=b,T=0
# Generator Randomized transaction data_in=c4,write_enb=1,read_enb=0,address=17,T=0
# Generator Randomized transaction data_in=43,write_enb=0,read_enb=0,address=1,T=0
# Generator Randomized transaction data_in=90,write_enb=0,read_enb=1,address=8,T=0
# Generator Randomized transaction data_in=c6,write_enb=0,read_enb=1,address=19,T=0
# Generator Randomized transaction data_in=21,write_enb=1,read_enb=0,address=18,T=0
# Generator Randomized transaction data_in=be,write_enb=1,read_enb=0,address=1c,T=0
# Generator Randomized transaction data_in=6,write_enb=0,read_enb=0,address=e,T=0
# Generator Randomized transaction data_in=fa,write_enb=1,read_enb=0,address=17,T=0
# Generator Randomized transaction data_in=a6,write_enb=1,read_enb=0,address=b,T=0
# Generator Randomized transaction data_in=d8,write_enb=0,read_enb=0,address=15,T=0
# Generator Randomized transaction data_in=97,write_enb=0,read_enb=0,address=17,T=0
# Generator Randomized transaction data_in=2d,write_enb=0,read_enb=0,address=4,T=0
# Generator Randomized transaction data_in=7e,write_enb=0,read_enb=0,address=9,T=0
# Generator Randomized transaction data_in=78,write_enb=0,read_enb=1,address=a,T=0
# Generator Randomized transaction data_in=c6,write_enb=0,read_enb=0,address=5,T=0
# Generator Randomized transaction data_in=6d,write_enb=0,read_enb=0,address=9,T=0
# Generator Randomized transaction data_in=14,write_enb=0,read_enb=1,address=8,T=0
# Generator Randomized transaction data_in=e1,write_enb=1,read_enb=0,address=18,T=0
# Generator Randomized transaction data_in=50,write_enb=0,read_enb=0,address=1,T=0
# Generator Randomized transaction data_in=db,write_enb=1,read_enb=0,address=12,T=0
# Generator Randomized transaction data_in=96,write_enb=1,read_enb=0,address=10,T=0
# Generator Randomized transaction data_in=19,write_enb=0,read_enb=0,address=7,T=0
# Generator Randomized transaction data_in=e9,write_enb=0,read_enb=0,address=5,T=0
# Generator Randomized transaction data_in=78,write_enb=1,read_enb=0,address=0,T=0
# Generator Randomized transaction data_in=fc,write_enb=1,read_enb=0,address=1b,T=0
# Generator Randomized transaction data_in=d1,write_enb=0,read_enb=0,address=5,T=0
# Generator Randomized transaction data_in=9e,write_enb=0,read_enb=1,address=1c,T=0
# Generator Randomized transaction data_in=28,write_enb=1,read_enb=0,address=7,T=0
# Generator Randomized transaction data_in=f3,write_enb=0,read_enb=0,address=15,T=0
# Generator Randomized transaction data_in=dd,write_enb=1,read_enb=0,address=6,T=0
# Generator Randomized transaction data_in=29,write_enb=1,read_enb=0,address=4,T=0
# Generator Randomized transaction data_in=d3,write_enb=0,read_enb=1,address=e,T=0
# Generator Randomized transaction data_in=8,write_enb=1,read_enb=0,address=0,T=0
# Generator Randomized transaction data_in=c8,write_enb=0,read_enb=0,address=2,T=0
# Generator Randomized transaction data_in=b,write_enb=0,read_enb=1,address=1c,T=0
# Generator Randomized transaction data_in=f4,write_enb=0,read_enb=0,address=7,T=0
# Generator Randomized transaction data_in=c8,write_enb=1,read_enb=0,address=b,T=0
# Generator Randomized transaction data_in=16,write_enb=0,read_enb=0,address=f,T=0
# Generator Randomized transaction data_in=23,write_enb=0,read_enb=0,address=1f,T=0
# Generator Randomized transaction data_in=16,write_enb=1,read_enb=0,address=6,T=0
# Generator Randomized transaction data_in=36,write_enb=0,read_enb=0,address=e,T=0
# Generator Randomized transaction data_in=ab,write_enb=1,read_enb=0,address=10,T=0
# Generator Randomized transaction data_in=b,write_enb=0,read_enb=1,address=e,T=0
# Generator Randomized transaction data_in=e,write_enb=1,read_enb=0,address=4,T=0
# Generator Randomized transaction data_in=f9,write_enb=1,read_enb=0,address=15,T=0
# Generator Randomized transaction data_in=1a,write_enb=1,read_enb=0,address=1a,T=0
# Generator Randomized transaction data_in=4a,write_enb=1,read_enb=0,address=12,T=0
# Generator Randomized transaction data_in=9e,write_enb=0,read_enb=0,address=1a,T=0
# Generator Randomized transaction data_in=f4,write_enb=1,read_enb=0,address=d,T=0
# Generator Randomized transaction data_in=17,write_enb=1,read_enb=0,address=1e,T=0
# Generator Randomized transaction data_in=d4,write_enb=0,read_enb=1,address=1,T=0
# Generator Randomized transaction data_in=51,write_enb=1,read_enb=0,address=13,T=0
# Generator Randomized transaction data_in=ce,write_enb=1,read_enb=0,address=0,T=0
# Generator Randomized transaction data_in=46,write_enb=0,read_enb=1,address=17,T=0
# Generator Randomized transaction data_in=3c,write_enb=0,read_enb=1,address=1f,T=0
# Generator Randomized transaction data_in=ea,write_enb=0,read_enb=0,address=8,T=0
# Generator Randomized transaction data_in=69,write_enb=0,read_enb=0,address=12,T=0
# Generator Randomized transaction data_in=15,write_enb=0,read_enb=1,address=1e,T=0
# Generator Randomized transaction data_in=4a,write_enb=0,read_enb=0,address=10,T=0
# Generator Randomized transaction data_in=26,write_enb=1,read_enb=0,address=17,T=0
# Generator Randomized transaction data_in=f6,write_enb=0,read_enb=0,address=1b,T=0
# Generator Randomized transaction data_in=d5,write_enb=1,read_enb=0,address=1f,T=0
# Generator Randomized transaction data_in=cb,write_enb=0,read_enb=0,address=1c,T=0
# Generator Randomized transaction data_in=91,write_enb=0,read_enb=1,address=5,T=0
# Generator Randomized transaction data_in=5b,write_enb=0,read_enb=1,address=9,T=0
# Generator Randomized transaction data_in=8,write_enb=1,read_enb=0,address=3,T=0
# Generator Randomized transaction data_in=bc,write_enb=0,read_enb=0,address=1a,T=0
# Generator Randomized transaction data_in=b6,write_enb=0,read_enb=0,address=6,T=0
# Generator Randomized transaction data_in=62,write_enb=0,read_enb=1,address=17,T=0
# Generator Randomized transaction data_in=f8,write_enb=0,read_enb=1,address=16,T=0
# Generator Randomized transaction data_in=71,write_enb=0,read_enb=0,address=11,T=0
# Generator Randomized transaction data_in=6d,write_enb=0,read_enb=0,address=10,T=0
# Generator Randomized transaction data_in=89,write_enb=1,read_enb=0,address=e,T=0
# Generator Randomized transaction data_in=b4,write_enb=1,read_enb=0,address=c,T=0
# Generator Randomized transaction data_in=cf,write_enb=0,read_enb=0,address=3,T=0
# Generator Randomized transaction data_in=cc,write_enb=1,read_enb=0,address=a,T=0
# Generator Randomized transaction data_in=b7,write_enb=0,read_enb=1,address=1c,T=0
# Generator Randomized transaction data_in=b,write_enb=0,read_enb=1,address=19,T=0
# Generator Randomized transaction data_in=3,write_enb=1,read_enb=0,address=1b,T=0
# Generator Randomized transaction data_in=74,write_enb=0,read_enb=0,address=6,T=0
# Generator Randomized transaction data_in=ce,write_enb=0,read_enb=0,address=18,T=0
# Generator Randomized transaction data_in=56,write_enb=0,read_enb=1,address=12,T=0
# Generator Randomized transaction data_in=9f,write_enb=0,read_enb=1,address=17,T=0
# Generator Randomized transaction data_in=61,write_enb=0,read_enb=1,address=3,T=0
# Generator Randomized transaction data_in=c7,write_enb=0,read_enb=0,address=11,T=0
# Generator Randomized transaction data_in=ed,write_enb=0,read_enb=1,address=14,T=0
# Generator Randomized transaction data_in=2,write_enb=1,read_enb=0,address=4,T=0
# Generator Randomized transaction data_in=11,write_enb=0,read_enb=0,address=12,T=0
# Generator Randomized transaction data_in=db,write_enb=0,read_enb=1,address=15,T=0
# Generator Randomized transaction data_in=96,write_enb=0,read_enb=1,address=6,T=0
# Generator Randomized transaction data_in=83,write_enb=0,read_enb=0,address=d,T=0
# Generator Randomized transaction data_in=95,write_enb=0,read_enb=0,address=8,T=0
# Generator Randomized transaction data_in=37,write_enb=1,read_enb=0,address=1b,T=0
# Generator Randomized transaction data_in=0,write_enb=0,read_enb=0,address=5,T=0
# Generator Randomized transaction data_in=44,write_enb=1,read_enb=0,address=4,T=0
# Generator Randomized transaction data_in=ca,write_enb=1,read_enb=0,address=1a,T=0
# Generator Randomized transaction data_in=6b,write_enb=0,read_enb=0,address=1,T=0
# Generator Randomized transaction data_in=fa,write_enb=0,read_enb=1,address=17,T=0
# Driver write operation driving data_in=39,write_enb=0,read_enb=0,address=a,T=900
# Input Functional Coverage=67
# Monitor Passing the data to scoreboard data_out=z                  90
# Output Functional Coverage = 0
# SCOREBOARD MON data_out=z, ADDRESS=a                  90
# Reference Model Data in memory MEM[a]=x,T=1100
# Reference Model Data out from memory data_out=x,T=1100
# SCOREBOARD REF data_out=x, ADDRESS=a                 110
# SCOREBOARD REF data_out=x, MON data_out=z                 110
# DATA MATCH FAILURE. MISMATCH count = 1
# Driver write operation driving data_in=28,write_enb=0,read_enb=1,address=b,T=1300
# Input Functional Coverage=83
# Monitor Passing the data to scoreboard data_out=0                 130
# Output Functional Coverage = 100
# SCOREBOARD MON data_out=0, ADDRESS=b                 130
# Reference Model Data in memory MEM[b]=x,T=1500
# Reference Model Data out from memory data_out=x,T=1500
# SCOREBOARD REF data_out=x, ADDRESS=b                 150
# SCOREBOARD REF data_out=x, MON data_out=0                 150
# DATA MATCH FAILURE. MISMATCH count = 2
# Driver write operation driving data_in=c4,write_enb=1,read_enb=0,address=17,T=1700
# Input Functional Coverage=100
# Monitor Passing the data to scoreboard data_out=0                 170
# Output Functional Coverage = 100
# SCOREBOARD MON data_out=0, ADDRESS=17                 170
# Reference Model Data in memory MEM[17]=c4,T=1900
# Reference Model Data out from memory data_out=x,T=1900
# SCOREBOARD REF data_out=x, ADDRESS=17                 190
# SCOREBOARD REF data_out=x, MON data_out=0                 190
# DATA MATCH FAILURE. MISMATCH count = 3
# Driver write operation driving data_in=43,write_enb=0,read_enb=0,address=1,T=2100
# Input Functional Coverage=100
# Monitor Passing the data to scoreboard data_out=0                 210
# Output Functional Coverage = 100
# SCOREBOARD MON data_out=0, ADDRESS=1                 210
# Reference Model Data in memory MEM[1]=x,T=2300
# Reference Model Data out from memory data_out=x,T=2300
# SCOREBOARD REF data_out=x, ADDRESS=1                 230
# SCOREBOARD REF data_out=x, MON data_out=0                 230
# DATA MATCH FAILURE. MISMATCH count = 4
# Driver write operation driving data_in=90,write_enb=0,read_enb=1,address=8,T=2500
# Input Functional Coverage=100
# Monitor Passing the data to scoreboard data_out=0                 250
# Output Functional Coverage = 100
# SCOREBOARD MON data_out=0, ADDRESS=8                 250
# Reference Model Data in memory MEM[8]=x,T=2700
# Reference Model Data out from memory data_out=x,T=2700
# SCOREBOARD REF data_out=x, ADDRESS=8                 270
# SCOREBOARD REF data_out=x, MON data_out=0                 270
# DATA MATCH FAILURE. MISMATCH count = 5
# Driver write operation driving data_in=c6,write_enb=0,read_enb=1,address=19,T=2900
# Input Functional Coverage=100
# Monitor Passing the data to scoreboard data_out=0                 290
# Output Functional Coverage = 100
# SCOREBOARD MON data_out=0, ADDRESS=19                 290
# Reference Model Data in memory MEM[19]=x,T=3100
# Reference Model Data out from memory data_out=x,T=3100
# SCOREBOARD REF data_out=x, ADDRESS=19                 310
# SCOREBOARD REF data_out=x, MON data_out=0                 310
# DATA MATCH FAILURE. MISMATCH count = 6
# Driver write operation driving data_in=21,write_enb=1,read_enb=0,address=18,T=3300
# Input Functional Coverage=100
# Monitor Passing the data to scoreboard data_out=0                 330
# Output Functional Coverage = 100
# SCOREBOARD MON data_out=0, ADDRESS=18                 330
# Reference Model Data in memory MEM[18]=21,T=3500
# Reference Model Data out from memory data_out=x,T=3500
# SCOREBOARD REF data_out=x, ADDRESS=18                 350
# SCOREBOARD REF data_out=x, MON data_out=0                 350
# DATA MATCH FAILURE. MISMATCH count = 7
# Driver write operation driving data_in=be,write_enb=1,read_enb=0,address=1c,T=3700
# Input Functional Coverage=100
# Monitor Passing the data to scoreboard data_out=0                 370
# Output Functional Coverage = 100
# SCOREBOARD MON data_out=0, ADDRESS=1c                 370
# Reference Model Data in memory MEM[1c]=be,T=3900
# Reference Model Data out from memory data_out=x,T=3900
# SCOREBOARD REF data_out=x, ADDRESS=1c                 390
# SCOREBOARD REF data_out=x, MON data_out=0                 390
# DATA MATCH FAILURE. MISMATCH count = 8
# Driver write operation driving data_in=6,write_enb=0,read_enb=0,address=e,T=4100
# Input Functional Coverage=100
# Monitor Passing the data to scoreboard data_out=0                 410
# Output Functional Coverage = 100
# SCOREBOARD MON data_out=0, ADDRESS=e                 410
# Reference Model Data in memory MEM[e]=x,T=4300
# Reference Model Data out from memory data_out=x,T=4300
# SCOREBOARD REF data_out=x, ADDRESS=e                 430
# SCOREBOARD REF data_out=x, MON data_out=0                 430
# DATA MATCH FAILURE. MISMATCH count = 9
# Driver write operation driving data_in=fa,write_enb=1,read_enb=0,address=17,T=4500
# Input Functional Coverage=100
# Monitor Passing the data to scoreboard data_out=0                 450
# Output Functional Coverage = 100
# SCOREBOARD MON data_out=0, ADDRESS=17                 450
# Reference Model Data in memory MEM[17]=fa,T=4700
# Reference Model Data out from memory data_out=x,T=4700
# SCOREBOARD REF data_out=x, ADDRESS=17                 470
# SCOREBOARD REF data_out=x, MON data_out=0                 470
# DATA MATCH FAILURE. MISMATCH count = 10
# Driver write operation driving data_in=a6,write_enb=1,read_enb=0,address=b,T=4900
# Input Functional Coverage=100
# Monitor Passing the data to scoreboard data_out=0                 490
# Output Functional Coverage = 100
# SCOREBOARD MON data_out=0, ADDRESS=b                 490
# Reference Model Data in memory MEM[b]=a6,T=5100
# Reference Model Data out from memory data_out=x,T=5100
# SCOREBOARD REF data_out=x, ADDRESS=b                 510
# SCOREBOARD REF data_out=x, MON data_out=0                 510
# DATA MATCH FAILURE. MISMATCH count = 11
# Driver write operation driving data_in=d8,write_enb=0,read_enb=0,address=15,T=5300
# Input Functional Coverage=100
# Monitor Passing the data to scoreboard data_out=0                 530
# Output Functional Coverage = 100
# SCOREBOARD MON data_out=0, ADDRESS=15                 530
# Reference Model Data in memory MEM[15]=x,T=5500
# Reference Model Data out from memory data_out=x,T=5500
# SCOREBOARD REF data_out=x, ADDRESS=15                 550
# SCOREBOARD REF data_out=x, MON data_out=0                 550
# DATA MATCH FAILURE. MISMATCH count = 12
# Driver write operation driving data_in=97,write_enb=0,read_enb=0,address=17,T=5700
# Input Functional Coverage=100
# Monitor Passing the data to scoreboard data_out=0                 570
# Output Functional Coverage = 100
# SCOREBOARD MON data_out=0, ADDRESS=17                 570
# Reference Model Data in memory MEM[17]=fa,T=5900
# Reference Model Data out from memory data_out=x,T=5900
# SCOREBOARD REF data_out=x, ADDRESS=17                 590
# SCOREBOARD REF data_out=x, MON data_out=0                 590
# DATA MATCH FAILURE. MISMATCH count = 13
# Driver write operation driving data_in=2d,write_enb=0,read_enb=0,address=4,T=6100
# Input Functional Coverage=100
# Monitor Passing the data to scoreboard data_out=0                 610
# Output Functional Coverage = 100
# SCOREBOARD MON data_out=0, ADDRESS=4                 610
# Reference Model Data in memory MEM[4]=x,T=6300
# Reference Model Data out from memory data_out=x,T=6300
# SCOREBOARD REF data_out=x, ADDRESS=4                 630
# SCOREBOARD REF data_out=x, MON data_out=0                 630
# DATA MATCH FAILURE. MISMATCH count = 14
# Driver write operation driving data_in=7e,write_enb=0,read_enb=0,address=9,T=6500
# Input Functional Coverage=100
# Monitor Passing the data to scoreboard data_out=0                 650
# Output Functional Coverage = 100
# SCOREBOARD MON data_out=0, ADDRESS=9                 650
# Reference Model Data in memory MEM[9]=x,T=6700
# Reference Model Data out from memory data_out=x,T=6700
# SCOREBOARD REF data_out=x, ADDRESS=9                 670
# SCOREBOARD REF data_out=x, MON data_out=0                 670
# DATA MATCH FAILURE. MISMATCH count = 15
# Driver write operation driving data_in=78,write_enb=0,read_enb=1,address=a,T=6900
# Input Functional Coverage=100
# Monitor Passing the data to scoreboard data_out=0                 690
# Output Functional Coverage = 100
# SCOREBOARD MON data_out=0, ADDRESS=a                 690
# Reference Model Data in memory MEM[a]=x,T=7100
# Reference Model Data out from memory data_out=x,T=7100
# SCOREBOARD REF data_out=x, ADDRESS=a                 710
# SCOREBOARD REF data_out=x, MON data_out=0                 710
# DATA MATCH FAILURE. MISMATCH count = 16
# Driver write operation driving data_in=c6,write_enb=0,read_enb=0,address=5,T=7300
# Input Functional Coverage=100
# Monitor Passing the data to scoreboard data_out=0                 730
# Output Functional Coverage = 100
# SCOREBOARD MON data_out=0, ADDRESS=5                 730
# Reference Model Data in memory MEM[5]=x,T=7500
# Reference Model Data out from memory data_out=x,T=7500
# SCOREBOARD REF data_out=x, ADDRESS=5                 750
# SCOREBOARD REF data_out=x, MON data_out=0                 750
# DATA MATCH FAILURE. MISMATCH count = 17
# Driver write operation driving data_in=6d,write_enb=0,read_enb=0,address=9,T=7700
# Input Functional Coverage=100
# Monitor Passing the data to scoreboard data_out=0                 770
# Output Functional Coverage = 100
# SCOREBOARD MON data_out=0, ADDRESS=9                 770
# Reference Model Data in memory MEM[9]=x,T=7900
# Reference Model Data out from memory data_out=x,T=7900
# SCOREBOARD REF data_out=x, ADDRESS=9                 790
# SCOREBOARD REF data_out=x, MON data_out=0                 790
# DATA MATCH FAILURE. MISMATCH count = 18
# Driver write operation driving data_in=14,write_enb=0,read_enb=1,address=8,T=8100
# Input Functional Coverage=100
# Monitor Passing the data to scoreboard data_out=0                 810
# Output Functional Coverage = 100
# SCOREBOARD MON data_out=0, ADDRESS=8                 810
# Reference Model Data in memory MEM[8]=x,T=8300
# Reference Model Data out from memory data_out=x,T=8300
# SCOREBOARD REF data_out=x, ADDRESS=8                 830
# SCOREBOARD REF data_out=x, MON data_out=0                 830
# DATA MATCH FAILURE. MISMATCH count = 19
# Driver write operation driving data_in=e1,write_enb=1,read_enb=0,address=18,T=8500
# Input Functional Coverage=100
# Monitor Passing the data to scoreboard data_out=0                 850
# Output Functional Coverage = 100
# SCOREBOARD MON data_out=0, ADDRESS=18                 850
# Reference Model Data in memory MEM[18]=e1,T=8700
# Reference Model Data out from memory data_out=x,T=8700
# SCOREBOARD REF data_out=x, ADDRESS=18                 870
# SCOREBOARD REF data_out=x, MON data_out=0                 870
# DATA MATCH FAILURE. MISMATCH count = 20
# Driver write operation driving data_in=50,write_enb=0,read_enb=0,address=1,T=8900
# Input Functional Coverage=100
# Monitor Passing the data to scoreboard data_out=0                 890
# Output Functional Coverage = 100
# SCOREBOARD MON data_out=0, ADDRESS=1                 890
# Reference Model Data in memory MEM[1]=x,T=9100
# Reference Model Data out from memory data_out=x,T=9100
# SCOREBOARD REF data_out=x, ADDRESS=1                 910
# SCOREBOARD REF data_out=x, MON data_out=0                 910
# DATA MATCH FAILURE. MISMATCH count = 21
# Driver write operation driving data_in=db,write_enb=1,read_enb=0,address=12,T=9300
# Input Functional Coverage=100
# Monitor Passing the data to scoreboard data_out=0                 930
# Output Functional Coverage = 100
# SCOREBOARD MON data_out=0, ADDRESS=12                 930
# Reference Model Data in memory MEM[12]=db,T=9500
# Reference Model Data out from memory data_out=x,T=9500
# SCOREBOARD REF data_out=x, ADDRESS=12                 950
# SCOREBOARD REF data_out=x, MON data_out=0                 950
# DATA MATCH FAILURE. MISMATCH count = 22
# Driver write operation driving data_in=96,write_enb=1,read_enb=0,address=10,T=9700
# Input Functional Coverage=100
# Monitor Passing the data to scoreboard data_out=0                 970
# Output Functional Coverage = 100
# SCOREBOARD MON data_out=0, ADDRESS=10                 970
# Reference Model Data in memory MEM[10]=96,T=9900
# Reference Model Data out from memory data_out=x,T=9900
# SCOREBOARD REF data_out=x, ADDRESS=10                 990
# SCOREBOARD REF data_out=x, MON data_out=0                 990
# DATA MATCH FAILURE. MISMATCH count = 23
# Driver write operation driving data_in=19,write_enb=0,read_enb=0,address=7,T=10100
# Input Functional Coverage=100
# Monitor Passing the data to scoreboard data_out=0                1010
# Output Functional Coverage = 100
# SCOREBOARD MON data_out=0, ADDRESS=7                1010
# Reference Model Data in memory MEM[7]=x,T=10300
# Reference Model Data out from memory data_out=x,T=10300
# SCOREBOARD REF data_out=x, ADDRESS=7                1030
# SCOREBOARD REF data_out=x, MON data_out=0                1030
# DATA MATCH FAILURE. MISMATCH count = 24
# Driver write operation driving data_in=e9,write_enb=0,read_enb=0,address=5,T=10500
# Input Functional Coverage=100
# Monitor Passing the data to scoreboard data_out=0                1050
# Output Functional Coverage = 100
# SCOREBOARD MON data_out=0, ADDRESS=5                1050
# Reference Model Data in memory MEM[5]=x,T=10700
# Reference Model Data out from memory data_out=x,T=10700
# SCOREBOARD REF data_out=x, ADDRESS=5                1070
# SCOREBOARD REF data_out=x, MON data_out=0                1070
# DATA MATCH FAILURE. MISMATCH count = 25
# Driver write operation driving data_in=78,write_enb=1,read_enb=0,address=0,T=10900
# Input Functional Coverage=100
# Monitor Passing the data to scoreboard data_out=0                1090
# Output Functional Coverage = 100
# SCOREBOARD MON data_out=0, ADDRESS=0                1090
# Reference Model Data in memory MEM[0]=78,T=11100
# Reference Model Data out from memory data_out=x,T=11100
# SCOREBOARD REF data_out=x, ADDRESS=0                1110
# SCOREBOARD REF data_out=x, MON data_out=0                1110
# DATA MATCH FAILURE. MISMATCH count = 26
# Driver write operation driving data_in=fc,write_enb=1,read_enb=0,address=1b,T=11300
# Input Functional Coverage=100
# Monitor Passing the data to scoreboard data_out=0                1130
# Output Functional Coverage = 100
# SCOREBOARD MON data_out=0, ADDRESS=1b                1130
# Reference Model Data in memory MEM[1b]=fc,T=11500
# Reference Model Data out from memory data_out=x,T=11500
# SCOREBOARD REF data_out=x, ADDRESS=1b                1150
# SCOREBOARD REF data_out=x, MON data_out=0                1150
# DATA MATCH FAILURE. MISMATCH count = 27
# Driver write operation driving data_in=d1,write_enb=0,read_enb=0,address=5,T=11700
# Input Functional Coverage=100
# Monitor Passing the data to scoreboard data_out=0                1170
# Output Functional Coverage = 100
# SCOREBOARD MON data_out=0, ADDRESS=5                1170
# Reference Model Data in memory MEM[5]=x,T=11900
# Reference Model Data out from memory data_out=x,T=11900
# SCOREBOARD REF data_out=x, ADDRESS=5                1190
# SCOREBOARD REF data_out=x, MON data_out=0                1190
# DATA MATCH FAILURE. MISMATCH count = 28
# Driver write operation driving data_in=9e,write_enb=0,read_enb=1,address=1c,T=12100
# Input Functional Coverage=100
# Monitor Passing the data to scoreboard data_out=be                1210
# Output Functional Coverage = 100
# SCOREBOARD MON data_out=be, ADDRESS=1c                1210
# Reference Model Data in memory MEM[1c]=be,T=12300
# Reference Model Data out from memory data_out=be,T=12300
# SCOREBOARD REF data_out=be, ADDRESS=1c                1230
# SCOREBOARD REF data_out=be, MON data_out=be                1230
# DATA MATCH SUCCESSFUL. MATCH count = 1
# Driver write operation driving data_in=28,write_enb=1,read_enb=0,address=7,T=12500
# Input Functional Coverage=100
# Monitor Passing the data to scoreboard data_out=be                1250
# Output Functional Coverage = 100
# SCOREBOARD MON data_out=be, ADDRESS=7                1250
# Reference Model Data in memory MEM[7]=28,T=12700
# Reference Model Data out from memory data_out=x,T=12700
# SCOREBOARD REF data_out=x, ADDRESS=7                1270
# SCOREBOARD REF data_out=x, MON data_out=be                1270
# DATA MATCH FAILURE. MISMATCH count = 29
# Driver write operation driving data_in=f3,write_enb=0,read_enb=0,address=15,T=12900
# Input Functional Coverage=100
# Monitor Passing the data to scoreboard data_out=be                1290
# Output Functional Coverage = 100
# SCOREBOARD MON data_out=be, ADDRESS=15                1290
# Reference Model Data in memory MEM[15]=x,T=13100
# Reference Model Data out from memory data_out=x,T=13100
# SCOREBOARD REF data_out=x, ADDRESS=15                1310
# SCOREBOARD REF data_out=x, MON data_out=be                1310
# DATA MATCH FAILURE. MISMATCH count = 30
# Driver write operation driving data_in=dd,write_enb=1,read_enb=0,address=6,T=13300
# Input Functional Coverage=100
# Monitor Passing the data to scoreboard data_out=be                1330
# Output Functional Coverage = 100
# SCOREBOARD MON data_out=be, ADDRESS=6                1330
# Reference Model Data in memory MEM[6]=dd,T=13500
# Reference Model Data out from memory data_out=x,T=13500
# SCOREBOARD REF data_out=x, ADDRESS=6                1350
# SCOREBOARD REF data_out=x, MON data_out=be                1350
# DATA MATCH FAILURE. MISMATCH count = 31
# Driver write operation driving data_in=29,write_enb=1,read_enb=0,address=4,T=13700
# Input Functional Coverage=100
# Monitor Passing the data to scoreboard data_out=be                1370
# Output Functional Coverage = 100
# SCOREBOARD MON data_out=be, ADDRESS=4                1370
# Reference Model Data in memory MEM[4]=29,T=13900
# Reference Model Data out from memory data_out=x,T=13900
# SCOREBOARD REF data_out=x, ADDRESS=4                1390
# SCOREBOARD REF data_out=x, MON data_out=be                1390
# DATA MATCH FAILURE. MISMATCH count = 32
# Driver write operation driving data_in=d3,write_enb=0,read_enb=1,address=e,T=14100
# Input Functional Coverage=100
# Monitor Passing the data to scoreboard data_out=0                1410
# Output Functional Coverage = 100
# SCOREBOARD MON data_out=0, ADDRESS=e                1410
# Reference Model Data in memory MEM[e]=x,T=14300
# Reference Model Data out from memory data_out=x,T=14300
# SCOREBOARD REF data_out=x, ADDRESS=e                1430
# SCOREBOARD REF data_out=x, MON data_out=0                1430
# DATA MATCH FAILURE. MISMATCH count = 33
# Driver write operation driving data_in=8,write_enb=1,read_enb=0,address=0,T=14500
# Input Functional Coverage=100
# Monitor Passing the data to scoreboard data_out=0                1450
# Output Functional Coverage = 100
# SCOREBOARD MON data_out=0, ADDRESS=0                1450
# Reference Model Data in memory MEM[0]=8,T=14700
# Reference Model Data out from memory data_out=x,T=14700
# SCOREBOARD REF data_out=x, ADDRESS=0                1470
# SCOREBOARD REF data_out=x, MON data_out=0                1470
# DATA MATCH FAILURE. MISMATCH count = 34
# Driver write operation driving data_in=c8,write_enb=0,read_enb=0,address=2,T=14900
# Input Functional Coverage=100
# Monitor Passing the data to scoreboard data_out=0                1490
# Output Functional Coverage = 100
# SCOREBOARD MON data_out=0, ADDRESS=2                1490
# Reference Model Data in memory MEM[2]=x,T=15100
# Reference Model Data out from memory data_out=x,T=15100
# SCOREBOARD REF data_out=x, ADDRESS=2                1510
# SCOREBOARD REF data_out=x, MON data_out=0                1510
# DATA MATCH FAILURE. MISMATCH count = 35
# Driver write operation driving data_in=b,write_enb=0,read_enb=1,address=1c,T=15300
# Input Functional Coverage=100
# Monitor Passing the data to scoreboard data_out=be                1530
# Output Functional Coverage = 100
# SCOREBOARD MON data_out=be, ADDRESS=1c                1530
# Reference Model Data in memory MEM[1c]=be,T=15500
# Reference Model Data out from memory data_out=be,T=15500
# SCOREBOARD REF data_out=be, ADDRESS=1c                1550
# SCOREBOARD REF data_out=be, MON data_out=be                1550
# DATA MATCH SUCCESSFUL. MATCH count = 2
# Driver write operation driving data_in=f4,write_enb=0,read_enb=0,address=7,T=15700
# Input Functional Coverage=100
# Monitor Passing the data to scoreboard data_out=be                1570
# Output Functional Coverage = 100
# SCOREBOARD MON data_out=be, ADDRESS=7                1570
# Reference Model Data in memory MEM[7]=28,T=15900
# Reference Model Data out from memory data_out=x,T=15900
# SCOREBOARD REF data_out=x, ADDRESS=7                1590
# SCOREBOARD REF data_out=x, MON data_out=be                1590
# DATA MATCH FAILURE. MISMATCH count = 36
# Driver write operation driving data_in=c8,write_enb=1,read_enb=0,address=b,T=16100
# Input Functional Coverage=100
# Monitor Passing the data to scoreboard data_out=be                1610
# Output Functional Coverage = 100
# SCOREBOARD MON data_out=be, ADDRESS=b                1610
# Reference Model Data in memory MEM[b]=c8,T=16300
# Reference Model Data out from memory data_out=x,T=16300
# SCOREBOARD REF data_out=x, ADDRESS=b                1630
# SCOREBOARD REF data_out=x, MON data_out=be                1630
# DATA MATCH FAILURE. MISMATCH count = 37
# Driver write operation driving data_in=16,write_enb=0,read_enb=0,address=f,T=16500
# Input Functional Coverage=100
# Monitor Passing the data to scoreboard data_out=be                1650
# Output Functional Coverage = 100
# SCOREBOARD MON data_out=be, ADDRESS=f                1650
# Reference Model Data in memory MEM[f]=x,T=16700
# Reference Model Data out from memory data_out=x,T=16700
# SCOREBOARD REF data_out=x, ADDRESS=f                1670
# SCOREBOARD REF data_out=x, MON data_out=be                1670
# DATA MATCH FAILURE. MISMATCH count = 38
# Driver write operation driving data_in=23,write_enb=0,read_enb=0,address=1f,T=16900
# Input Functional Coverage=100
# Monitor Passing the data to scoreboard data_out=be                1690
# Output Functional Coverage = 100
